C:\Users\minhlh\IdeaProjects\masterselenium\src\test\java\drivercontrol\listeners\ScreenshotListener.java
C:\Users\minhlh\IdeaProjects\masterselenium\src\test\java\drivercontrol\BacsicIT.java
C:\Users\minhlh\IdeaProjects\masterselenium\src\test\java\drivercontrol\config\DriverFactory.java
C:\Users\minhlh\IdeaProjects\masterselenium\src\test\java\drivercontrol\config\DriverSetup.java
C:\Users\minhlh\IdeaProjects\masterselenium\src\test\java\drivercontrol\config\DriverType.java
C:\Users\minhlh\IdeaProjects\masterselenium\src\test\java\drivercontrol\DriverBase.java
